﻿id,user,ssn,date_of_birth,citizenship,phone_nr,residence,insurance,doctor
,7,1380712418937,2020-12-07,RO,0722111111,1,6,109
,8,1.11078E+11,2020-12-07,RO,0722118086,2,5,110
,9,2.91062E+12,2020-12-07,RO,0722125061,3,1,111
,10,2.07028E+11,2020-12-07,RO,0722132036,4,4,112
,11,2.54122E+12,2020-12-07,RO,0722139011,5,6,113
,12,2.80122E+12,2020-12-07,RO,0722145986,6,1,114
,13,2.90022E+12,2020-12-07,RO,0722152961,7,1,115
,14,2.00073E+12,2020-12-07,RO,0722159936,8,5,116
,15,2.00072E+12,2020-12-07,RO,0722166911,9,5,109
,16,2.51113E+12,2020-12-07,RO,0722173886,1,6,110
,17,2.54112E+12,2020-12-07,RO,0722180861,1,6,111
,18,2.15032E+12,2020-12-07,RO,0722187836,2,4,112
,19,2.95082E+12,2020-12-07,RO,0722194811,3,1,113
,20,2.41082E+12,2020-12-07,RO,0722201786,4,6,114
,21,2.49092E+12,2020-12-07,RO,0722208761,5,6,115
,22,1.05113E+12,2020-12-07,RO,0722215736,6,4,116
,23,1.80012E+12,2020-12-07,RO,0722222711,7,1,109
,24,2.47014E+11,2020-12-07,RO,0722229686,8,6,110
,25,2.76055E+11,2020-12-07,RO,0722236661,9,1,111
,26,2.56012E+12,2020-12-07,RO,0722243636,1,6,112
,27,1.04091E+12,2020-12-07,RO,0722250611,1,4,113
,28,2.65059E+11,2020-12-07,RO,0722257586,2,1,114
,29,2.17092E+12,2020-12-07,RO,0722264561,3,4,115
,30,2.97015E+11,2020-12-07,RO,0722271536,4,1,116
,31,2.70018E+11,2020-12-07,RO,0722278511,5,1,109
,32,1.91042E+12,2020-12-07,RO,0722285486,6,1,110
,33,1.56083E+12,2020-12-07,RO,0722292461,7,6,111
,34,1.15121E+11,2020-12-07,RO,0722299436,8,4,112
,35,2.57106E+11,2020-12-07,RO,0722306411,9,6,113
,36,1.18032E+12,2020-12-07,RO,0722313386,1,4,114
,37,2.17111E+12,2020-12-07,RO,0722320361,1,4,115
,38,1.80101E+12,2020-12-07,RO,0722327336,2,1,116
,39,1.97051E+11,2020-12-07,RO,0722334311,3,1,109
,40,2.58011E+12,2020-12-07,RO,0722341286,4,6,110
,41,2.80052E+12,2020-12-07,RO,0722348261,5,1,111
,42,2.77043E+12,2020-12-07,RO,0722355236,6,1,112
,43,1.15048E+11,2020-12-07,RO,0722362211,7,4,113
,44,2.51122E+12,2020-12-07,RO,0722369186,8,6,114
,45,2.01063E+12,2020-12-07,RO,0722376161,9,1,115
,46,2.74032E+12,2020-12-07,RO,0722383136,1,1,116
,47,2.0808E+11,2020-12-07,RO,0722390111,1,4,109
,48,2.08088E+11,2020-12-07,RO,0722397086,2,4,110
,49,2.67113E+11,2020-12-07,RO,0722404061,3,6,111
,50,2.00052E+12,2020-12-07,RO,0722411036,4,5,112
,51,2.95112E+12,2020-12-07,RO,0722418011,5,1,113
,52,2.13123E+11,2020-12-07,RO,0722424986,6,4,114
,53,1.49096E+11,2020-12-07,RO,0722431961,7,6,115
,54,1.11052E+12,2020-12-07,RO,0722438936,8,4,116
,55,2.94092E+12,2020-12-07,RO,0722445911,9,1,109
,56,2.53113E+12,2020-12-07,RO,0722452886,1,6,110
,57,2.86031E+12,2020-12-07,RO,0722459861,1,1,111
,58,2.79012E+12,2020-12-07,RO,0722466836,2,1,112
,59,2.95032E+11,2020-12-07,RO,0722473811,3,1,113
,60,2.95071E+12,2020-12-07,RO,0722480786,4,1,114
,61,2.63103E+12,2020-12-07,RO,0722487761,5,1,115
,62,2.09092E+12,2020-12-07,RO,0722494736,6,4,116
,63,2.48052E+12,2020-12-07,RO,0722501711,7,6,109
,64,1.86072E+12,2020-12-07,RO,0722508686,8,1,110
,65,2.56103E+12,2020-12-07,RO,0722515661,9,6,111
,66,1.80027E+11,2020-12-07,RO,0722522636,1,1,112
,67,2.57023E+11,2020-12-07,RO,0722529611,1,6,113
,68,1.05033E+12,2020-12-07,RO,0722536586,2,4,114
,69,2.68073E+12,2020-12-07,RO,0722543561,3,6,115
,70,1.45072E+12,2020-12-07,RO,0722550536,4,6,116
,71,2.75019E+11,2020-12-07,RO,0722557511,5,1,109
,72,2.40102E+12,2020-12-07,RO,0722564486,6,6,110
,73,2.61112E+11,2020-12-07,RO,0722571461,7,1,111
,74,1.80059E+11,2020-12-07,RO,0722578436,8,1,112
,75,2.47118E+11,2020-12-07,RO,0722585411,9,6,113
,76,1.79121E+12,2020-12-07,RO,0722592386,1,1,114
,77,2.5503E+11,2020-12-07,RO,0722599361,1,6,115
,78,2.36053E+12,2020-12-07,RO,0722606336,2,6,116
,79,1.01102E+12,2020-12-07,RO,0722613311,3,5,109
,80,1.74022E+12,2020-12-07,RO,0722620286,4,1,110
,81,2.15023E+12,2020-12-07,RO,0722627261,5,4,111
,82,1.9104E+11,2020-12-07,RO,0722634236,6,1,112
,83,2.83071E+12,2020-12-07,RO,0722641211,7,1,113
,84,2.69101E+12,2020-12-07,RO,0722648186,8,1,114
,85,2.35033E+12,2020-12-07,RO,0722655161,9,6,115
,86,2.59033E+11,2020-12-07,RO,0722662136,1,6,116
,87,1.17072E+11,2020-12-07,RO,0722669111,1,4,109
,88,1.38043E+12,2020-12-07,RO,0722676086,2,6,110
,89,1.12102E+12,2020-12-07,RO,0722683061,3,4,111
,90,2.60021E+12,2020-12-07,RO,0722690036,4,1,112
,91,2.82067E+11,2020-12-07,RO,0722697011,5,1,113
,92,1.12072E+12,2020-12-07,RO,0722703986,6,4,114
,93,2.05061E+12,2020-12-07,RO,0722710961,7,4,115
,94,2.46063E+11,2020-12-07,RO,0722717936,8,6,116
,95,1.16092E+11,2020-12-07,RO,0722724911,9,4,109
,96,2.00062E+12,2020-12-07,RO,0722731886,1,5,110
,97,2.60072E+12,2020-12-07,RO,0722738861,1,6,111
,98,2.44042E+12,2020-12-07,RO,0722745836,2,6,112
,99,2.54022E+12,2020-12-07,RO,0722752811,3,6,113
,100,2.41082E+12,2020-12-07,RO,0722759786,4,6,114
,101,1.62082E+11,2020-12-07,RO,0722766761,5,1,115
,102,2.77102E+12,2020-12-07,RO,0722773736,6,1,116
,103,1.64043E+12,2020-12-07,RO,0722780711,7,1,109
,104,2.20055E+11,2020-12-07,RO,0722787686,8,4,110
,105,2.84031E+12,2020-12-07,RO,0722794661,9,1,111
,106,2.76094E+11,2020-12-07,RO,0722801636,1,1,112
,107,2.37031E+12,2020-12-07,RO,0722808611,1,6,113
,108,2.80102E+12,2020-12-07,RO,0722815586,2,1,114
,109,2.70043E+12,2020-12-07,RO,0722822561,3,1,115
,110,2.10103E+12,2020-12-07,RO,0722829536,4,4,116
,111,2.00102E+12,2020-12-07,RO,0722836511,5,1,109
,112,2.54093E+12,2020-12-07,RO,0722843486,6,6,110
,113,1.98072E+12,2020-12-07,RO,0722850461,7,1,111
,114,1.94103E+12,2020-12-07,RO,0722857436,8,1,112
,115,2.14011E+12,2020-12-07,RO,0722864411,9,4,113
,116,2.91072E+12,2020-12-07,RO,0722871386,1,1,114
,117,2.55098E+11,2020-12-07,RO,0722878361,1,6,115
,118,2.37072E+12,2020-12-07,RO,0722885336,2,6,116
,119,2.01098E+11,2020-12-07,RO,0722892311,3,1,109
,120,2.12116E+11,2020-12-07,RO,0722899286,4,4,110
,121,2.15085E+11,2020-12-07,RO,0722906261,5,4,111
,122,2.07082E+12,2020-12-07,RO,0722913236,6,4,112
,123,2.58062E+12,1985-05-02,RO,0722920211,7,6,113
,124,1.77077E+11,1985-05-03,RO,0722927186,8,1,114
,125,2.40016E+11,1985-05-04,RO,0722934161,9,6,115
,126,2.80012E+12,1985-05-05,RO,0722941136,1,1,116
,127,1.96051E+12,1985-05-06,RO,0722948111,1,1,109
,128,1.58052E+12,1985-05-07,RO,0722955086,2,6,110
,129,2.50071E+12,1985-05-08,RO,0722962061,3,6,111
,130,1.36102E+12,1985-05-09,RO,0722969036,4,6,112
,131,1.00072E+12,1985-05-10,RO,0722976011,5,1,113
,132,2.02092E+11,1985-05-11,RO,0722982986,6,5,114
,133,2.35087E+11,1985-05-12,RO,0722989961,7,5,115
,134,1.67031E+12,1985-05-13,RO,0722996936,8,1,116
,135,2.52043E+12,1985-05-14,RO,0723003911,9,6,109
,136,2.16092E+12,1985-05-15,RO,0723010886,1,4,110
,137,1.56022E+12,1985-05-16,RO,0723017861,1,6,111
,138,2.44101E+12,1985-05-17,RO,0723024836,2,6,112
,139,2.04112E+12,1985-05-18,RO,0723031811,3,4,113
,140,1.87043E+12,1985-05-19,RO,0723038786,4,1,114
,141,2.88093E+12,1985-05-20,RO,0723045761,5,1,115
,142,2.51019E+11,1985-05-21,RO,0723052736,6,6,116
,143,2.83122E+12,1985-05-22,RO,0723059711,7,1,109
,144,2.52081E+12,1985-05-23,RO,0723066686,8,6,110
,145,2.81102E+12,1985-05-24,RO,0723073661,9,1,111
,146,2.74062E+12,1985-05-25,RO,0723080636,1,1,112
,147,2.01032E+12,1985-05-26,RO,0723087611,1,5,113
,148,2.12096E+11,1985-05-27,RO,0723094586,2,5,114
,149,1.74042E+12,1985-05-28,RO,0723101561,3,1,115
,150,2.68045E+11,1985-05-29,RO,0723108536,4,1,116
,151,2.91011E+12,1985-05-30,RO,0723115511,5,1,109
,152,2.19081E+12,1985-05-31,RO,0723122486,6,4,110
,153,2.80022E+12,1990-06-01,RO,0723129461,7,1,111
,154,2.10063E+12,1990-06-02,RO,0723136436,8,4,112
,155,2.09031E+12,1990-06-03,RO,0723143411,9,4,113
,156,2.00113E+12,1990-06-04,RO,0723150386,1,5,114
,157,2.77061E+12,1990-06-05,RO,0723157361,1,1,115
,158,1.76029E+11,1990-06-06,RO,0723164336,2,1,116
,159,2.41038E+11,1990-06-07,RO,0723171311,3,6,109
,160,2.40042E+12,1990-06-08,RO,0723178286,4,6,110
,161,1.93041E+12,1990-06-09,RO,0723185261,5,1,111
,162,2.86123E+12,1990-06-10,RO,0723192236,6,1,112
,163,2.54022E+12,1990-06-11,RO,0723199211,7,6,113
,164,2.61093E+11,1990-06-12,RO,0723206186,8,1,114
,165,2.78052E+12,1990-06-13,RO,0723213161,9,1,115
,166,2.66033E+12,1990-06-14,RO,0723220136,1,1,116
,167,2.61111E+11,1990-06-15,RO,0723227111,1,1,109
,168,2.09082E+12,1990-06-16,RO,0723234086,2,4,110
,169,1.17082E+11,1990-06-17,RO,0723241061,3,4,111
,170,1.35093E+11,1990-06-18,RO,0723248036,4,6,112
,171,2.74073E+12,1990-06-19,RO,0723255011,5,1,113
,172,2.04112E+12,1990-06-20,RO,0723261986,6,4,114
,173,1.58123E+12,1990-06-21,RO,0723268961,7,6,115
,174,1.65086E+11,1990-06-22,RO,0723275936,8,1,116
,175,2.10032E+12,1990-06-23,RO,0723282911,9,4,109
,176,2.65059E+11,1990-06-24,RO,0723289886,1,1,110
,177,1.84043E+12,1990-06-25,RO,0723296861,1,1,111
,178,2.98102E+12,1990-06-26,RO,0723303836,2,1,112
,179,1.61053E+12,1990-06-27,RO,0723310811,3,6,113
,180,2.9007E+11,1990-06-28,RO,0723317786,4,1,114
,181,2.90033E+12,1990-06-29,RO,0723324761,5,1,115
,182,2.15053E+12,1990-06-30,RO,0723331736,6,4,116
,183,2.01052E+11,1990-06-30,RO,0723338711,7,5,109
,184,1.43032E+12,1990-07-01,RO,0723345686,8,6,110
,185,2.63069E+11,1990-07-02,RO,0723352661,9,1,111
,186,1.44023E+12,1990-07-03,RO,0723359636,1,6,112
,187,1.12012E+12,1990-07-04,RO,0723366611,1,4,113
,188,1.69041E+12,1990-07-05,RO,0723373586,2,1,114
,189,2.90086E+11,1990-07-06,RO,0723380561,3,1,115
,190,1.00103E+12,1990-07-07,RO,0723387536,4,5,116
,191,2.11072E+12,1990-07-08,RO,0723394511,5,4,109
,192,1.94117E+11,1990-07-09,RO,0723401486,6,1,110
,193,1.20012E+12,1990-07-10,RO,0723408461,7,4,111
,194,1.51051E+12,1990-07-11,RO,0723415436,8,6,112
,195,1.49091E+12,1990-07-12,RO,0723422411,9,6,113
,196,2.75082E+12,1990-07-13,RO,0723429386,1,1,114
,197,2.66127E+11,1990-07-14,RO,0723436361,1,1,115
,198,2.88122E+12,1990-07-15,RO,0723443336,2,1,116
,199,2.36082E+12,1990-07-16,RO,0723450311,3,6,109
,200,2.66119E+11,1990-07-17,RO,0723457286,4,6,110
,201,2.45098E+11,1990-07-18,RO,0723464261,5,6,111
,202,2.65102E+12,1990-07-19,RO,0723471236,6,6,112
,203,2.61011E+12,1990-07-20,RO,0723478211,7,1,113
,204,2.39097E+11,1990-07-21,RO,0723485186,8,6,114
,205,1.39018E+11,1990-07-22,RO,0723492161,9,6,115
,206,1.19082E+12,1990-07-23,RO,0723499136,1,4,116
,207,2.44101E+11,1990-07-24,RO,0723506111,1,6,109
