﻿id,pick_up_date,pharmacist,pharmacy,prescription,patient
,03-01-20,132,16,474,289
,04-01-20,133,17,475,362
,05-01-20,134,18,476,249
,06-01-20,135,19,477,280
,07-01-20,136,20,478,254
,08-01-20,137,21,479,262
,09-01-20,138,22,480,321
,10-01-20,139,23,481,287
,11-01-20,140,24,482,314
,12-01-20,141,25,483,301
,13-01-20,142,26,484,339
,14-01-20,143,27,485,322
,15-01-20,144,28,486,310
,16-01-20,145,29,487,380
,17-01-20,146,30,488,436
,18-01-20,147,31,489,266
,19-01-20,117,1,490,297
,20-01-20,118,2,491,338
,21-01-20,119,3,492,257
,22-01-20,120,4,493,244
,23-01-20,121,5,494,350
,24-01-20,122,6,495,257
,25-01-20,123,7,496,335
,26-01-20,124,8,497,306
,27-01-20,125,9,498,348
,28-01-20,126,10,499,249
,29-01-20,127,11,500,274
,30-01-20,128,12,501,257
,31-01-20,129,13,502,277
,03-01-20,130,14,503,319
,04-01-20,131,15,504,359
,05-01-20,132,16,505,369
,06-01-20,133,17,506,269
,07-01-20,134,18,507,246
,08-01-20,135,19,508,268
,09-01-20,136,20,509,333
,10-01-20,137,21,510,342
,11-01-20,138,22,511,395
,12-01-20,139,23,512,442
,13-01-20,140,24,513,348
,14-01-20,141,25,514,262
,15-01-20,142,26,515,285
,16-01-20,143,27,516,293
,17-01-20,144,28,517,334
,18-01-20,145,29,518,321
,19-01-20,146,30,519,314
,20-01-20,147,31,520,248
,21-01-20,117,1,521,301
,22-01-20,118,2,522,394
,23-01-20,119,3,523,440
,24-01-20,120,4,524,282
,25-01-20,121,5,525,312
,26-01-20,122,6,526,380
,27-01-20,123,7,527,262
,28-01-20,124,8,528,436
,29-01-20,125,9,529,296
,30-01-20,126,10,530,362
,31-01-20,127,11,531,308
,03-01-20,128,12,532,257
,04-01-20,129,13,533,335
,05-01-20,130,14,534,364
,06-01-20,131,15,535,396
,07-01-20,132,16,536,377
,08-01-20,133,17,537,247
,09-01-20,134,18,538,256
,10-01-20,135,19,539,376
,11-01-20,136,20,540,250
,12-01-20,137,21,541,348
,13-01-20,117,1,542,359
,14-01-20,118,2,543,339
,15-01-20,119,3,544,300
,16-01-20,120,4,545,248
,17-01-20,121,5,546,280
,18-01-20,122,6,547,348
,19-01-20,123,7,548,337
,20-01-20,124,8,549,387
,21-01-20,125,9,550,339
,22-01-20,126,10,551,297
,23-01-20,127,11,552,369
,24-01-20,128,12,553,395
,25-01-20,129,13,554,311
,26-01-20,130,14,555,442
,27-01-20,131,15,556,274
,28-01-20,132,16,557,348
,29-01-20,133,17,558,348
,30-01-20,134,18,559,268
,31-01-20,135,19,560,385
,03-01-20,136,20,561,262
,04-01-20,137,21,562,314
,05-01-20,138,22,563,276
,06-01-20,139,23,564,425
,07-01-20,140,24,565,362
,08-01-20,141,25,566,301
,09-01-20,142,26,567,335
,10-01-20,143,27,568,434
,11-01-20,144,28,569,266
,12-01-20,145,29,570,300
,13-01-20,146,30,571,348
,14-01-20,147,31,572,285
,15-01-20,117,1,573,380
,16-01-20,118,2,574,436
,17-01-20,119,3,575,343
,18-01-20,120,4,576,337
,19-01-20,121,5,577,316
,20-01-20,122,6,578,344
,21-01-20,123,7,579,261
,22-01-20,124,8,580,257
,23-01-20,125,9,581,335
,24-01-20,126,10,582,348
,25-01-20,127,11,583,359
,26-01-20,128,12,584,343
,27-01-20,129,13,585,305
,28-01-20,130,14,586,327
,29-01-20,131,15,587,250
,30-01-20,132,16,588,254
,31-01-20,133,17,589,320
,03-01-20,134,18,590,266
,04-01-20,135,19,591,327
,05-01-20,136,20,592,387
,06-01-20,137,21,593,364
,07-01-20,138,22,594,369
,08-01-20,139,23,595,395
,09-01-20,140,24,596,409
,10-01-20,141,25,597,371
,11-01-20,142,26,598,399
,12-01-20,143,27,599,282
,13-01-20,144,28,600,268
,14-01-20,145,29,601,294
,15-01-20,146,30,602,291
,16-01-20,147,31,603,442
,17-01-20,117,1,604,348
,18-01-20,118,2,605,262
,19-01-20,119,3,606,260
,20-01-20,120,4,607,322
,21-01-20,121,5,608,367
,22-01-20,122,6,609,289
,23-01-20,123,7,610,401
,24-01-20,124,8,611,350
,25-01-20,125,9,612,314
,26-01-20,126,10,613,301
,27-01-20,127,11,614,380
,28-01-20,128,12,615,436
,29-01-20,129,13,616,353
,30-01-20,130,14,617,248
,31-01-20,131,15,618,293
,03-01-20,132,16,619,362
,04-01-20,133,17,620,426
,05-01-20,134,18,621,327
,06-01-20,135,19,622,264
,07-01-20,136,20,623,337
,08-01-20,137,21,624,257
,09-01-20,138,22,625,335
,10-01-20,139,23,626,275
,11-01-20,140,24,627,267
,12-01-20,141,25,628,299
,13-01-20,142,26,629,336
,14-01-20,143,27,630,378
,15-01-20,144,28,631,442
,16-01-20,145,29,632,444
,17-01-20,146,30,633,248
,18-01-20,147,31,634,348
,19-01-20,117,1,635,359
,20-01-20,118,2,636,369
,21-01-20,119,3,637,395
,22-01-20,120,4,638,292
,23-01-20,121,5,639,339
,24-01-20,122,6,640,291
,25-01-20,123,7,641,302
,26-01-20,124,8,642,280
,27-01-20,125,9,643,361
,28-01-20,126,10,644,442
,29-01-20,127,11,645,348
,30-01-20,128,12,646,262
,31-01-20,129,13,647,314
,03-01-20,130,14,648,399
,04-01-20,131,15,649,336
,05-01-20,132,16,650,244
,06-01-20,133,17,651,271
,07-01-20,134,18,652,305
,08-01-20,135,19,653,329
,09-01-20,136,20,654,338
,10-01-20,137,21,655,422
,11-01-20,117,1,656,363
,12-01-20,118,2,657,246
,13-01-20,119,3,658,301
,14-01-20,120,4,659,380
,15-01-20,121,5,660,436
,16-01-20,122,6,661,297
,17-01-20,123,7,662,425
,18-01-20,124,8,663,338
,19-01-20,125,9,664,342
,20-01-20,126,10,665,386
,21-01-20,127,11,666,249
,22-01-20,128,12,667,345
,23-01-20,129,13,668,324
,24-01-20,130,14,669,314
,25-01-20,131,15,670,431
,26-01-20,132,16,671,313
,27-01-20,133,17,672,280
,28-01-20,134,18,673,257
,29-01-20,135,19,674,335
,30-01-20,136,20,675,348
,31-01-20,137,21,676,294
,03-01-20,138,22,677,359
,04-01-20,139,23,678,369
,05-01-20,140,24,679,395
,06-01-20,141,25,680,436
,07-01-20,142,26,681,387
,08-01-20,143,27,682,257
,09-01-20,144,28,683,335
,10-01-20,145,29,684,348
,11-01-20,146,30,685,359
,12-01-20,147,31,686,369
,13-01-20,117,1,687,395
,14-01-20,118,2,688,401
,15-01-20,119,3,689,415
,16-01-20,120,4,690,268
,17-01-20,121,5,691,416
,18-01-20,122,6,692,442
,19-01-20,123,7,693,348
,20-01-20,124,8,694,262
,21-01-20,125,9,695,258
,22-01-20,126,10,696,321
,23-01-20,127,11,697,338
,24-01-20,128,12,698,398
,25-01-20,129,13,699,314
,26-01-20,130,14,700,301
,27-01-20,131,15,701,380
,28-01-20,132,16,702,436
,29-01-20,133,17,703,257
,30-01-20,134,18,704,409
,31-01-20,135,19,705,441
,03-01-20,136,20,706,276
,04-01-20,137,21,707,335
,05-01-20,138,22,708,348
,06-01-20,139,23,709,359
,07-01-20,140,24,710,369
,08-01-20,141,25,711,334
,09-01-20,142,26,712,410
,10-01-20,143,27,713,327
,11-01-20,144,28,714,310
,12-01-20,145,29,715,412
,13-01-20,146,30,716,395
,14-01-20,147,31,717,442
,15-01-20,117,1,718,348
,16-01-20,118,2,719,262
,17-01-20,119,3,720,353
,18-01-20,120,4,721,258
,19-01-20,121,5,722,246
,20-01-20,122,6,723,277
,21-01-20,123,7,724,291
,22-01-20,124,8,725,422
,23-01-20,125,9,726,314
,24-01-20,126,10,727,301
,25-01-20,127,11,728,380
,26-01-20,128,12,729,436
,27-01-20,129,13,730,326
,28-01-20,130,14,731,399
,29-01-20,131,15,732,365
,30-01-20,126,10,733,276
,31-01-20,127,11,734,334
,03-01-20,128,12,735,299
,04-01-20,129,13,736,257
,05-01-20,130,14,737,335
,06-01-20,131,15,738,348
,07-01-20,132,16,739,359
,08-01-20,133,17,740,369
,09-01-20,134,18,741,248
,10-01-20,135,19,742,320
,11-01-20,136,20,743,291
,12-01-20,137,21,744,374
,13-01-20,138,22,745,337
,14-01-20,139,23,746,247
,15-01-20,140,24,747,249
,16-01-20,141,25,748,395
,17-01-20,142,26,749,442
,18-01-20,143,27,750,348
,19-01-20,144,28,751,262
,20-01-20,145,29,752,353
,21-01-20,146,30,753,425
,22-01-20,147,31,754,370
,23-01-20,117,1,755,302
,24-01-20,118,2,756,308
,25-01-20,119,3,757,254
,26-01-20,120,4,758,314
,27-01-20,121,5,759,301
,28-01-20,122,6,760,380
,29-01-20,123,7,761,436
,30-01-20,124,8,762,257
,31-01-20,125,9,763,335
,03-01-20,126,10,764,339
,04-01-20,127,11,765,310
,05-01-20,128,12,766,314
,06-01-20,129,13,767,348
,07-01-20,130,14,768,359
,08-01-20,131,15,769,369
,09-01-20,117,1,770,395
,10-01-20,118,2,771,442
,11-01-20,119,3,772,348
,12-01-20,120,4,773,262
,13-01-20,121,5,774,246
,14-01-20,122,6,775,350
,15-01-20,123,7,776,282
,16-01-20,124,8,777,280
,17-01-20,125,9,778,305
,18-01-20,119,3,779,314
,19-01-20,120,4,780,301
,20-01-20,121,5,781,380
,21-01-20,122,6,782,436
,22-01-20,123,7,783,257
