﻿id,creation_date,series,number,diagnostic_type,active_substance,pharmaceutical_form,concentration,consultation,prescription_type,doctor,patient,insurance
,09-01-20,RMB,100101,1,1,1,23,473,1,101,289,6
,10-01-20,RMB,100102,1,1,1,23,472,1,101,362,1
,11-01-20,RMB,100103,1,1,1,23,471,1,101,249,1
,12-01-20,RMB,100104,2,2,1,23,470,2,65,280,6
,13-01-20,RMB,100105,2,2,1,23,469,2,55,254,6
,14-01-20,RMB,100106,3,3,1,20,468,3,21,262,6
,15-01-20,RMB,100107,1,4,1,23,467,1,51,321,6
,16-01-20,RMB,100108,1,5,1,27,466,1,51,287,1
,17-01-20,RMB,100109,3,6,1,20,465,3,61,314,6
,18-01-20,RMB,100110,3,3,1,20,464,3,5,301,6
,19-01-20,RMB,100111,1,4,1,20,463,1,67,339,1
,20-01-20,RMC,100112,1,5,1,27,462,1,74,322,6
,21-01-20,RMC,100113,1,4,1,27,461,1,101,310,1
,22-01-20,RMC,100114,3,3,1,20,460,3,21,380,6
,23-01-20,RMC,100115,3,3,1,20,459,3,21,436,6
,24-01-20,RMC,100116,1,4,1,20,458,1,93,266,1
,25-01-20,RMC,100117,1,5,1,27,457,1,93,297,6
,26-01-20,RMC,100118,1,4,1,20,456,1,93,338,1
,27-01-20,RMC,100119,3,6,1,20,455,3,61,257,6
,28-01-20,RMC,100120,2,2,1,20,454,2,79,244,6
,29-01-20,RMC,100121,1,4,1,20,453,1,87,350,1
,30-01-20,RMC,100122,1,4,1,20,452,1,101,257,6
,31-01-20,RMC,100123,3,6,1,20,451,3,5,335,6
,09-01-20,RMC,100124,2,2,1,20,450,2,35,306,6
,10-01-20,RMC,100125,3,6,1,20,449,3,21,348,6
,11-01-20,RMC,100126,1,4,1,20,448,1,101,249,1
,12-01-20,RMC,100127,1,4,1,20,447,1,101,274,1
,13-01-20,RMC,100128,1,4,1,20,446,1,93,257,6
,14-01-20,RMC,100129,1,4,1,20,445,1,93,277,1
,15-01-20,RMC,100130,1,5,1,27,473,1,101,319,1
,16-01-20,RMC,100131,3,6,1,20,472,3,61,359,6
,17-01-20,RMC,100132,3,6,1,20,471,3,5,369,6
,18-01-20,RMC,100133,2,2,1,20,470,2,3,269,6
,19-01-20,RMC,100134,1,5,1,27,469,1,51,246,1
,20-01-20,RMC,100135,1,4,1,20,468,1,51,268,1
,21-01-20,RMC,100136,1,4,1,20,467,1,101,333,6
,22-01-20,RMC,100137,1,4,1,20,466,1,101,342,1
,23-01-20,RMC,100138,3,3,1,20,465,3,61,395,6
,24-01-20,RMC,100139,3,3,1,20,464,3,61,442,6
,25-01-20,RMC,100140,3,3,1,20,463,3,5,348,6
,26-01-20,RMC,100141,3,3,1,20,462,3,5,262,6
,27-01-20,RMD,100142,1,4,1,20,461,1,57,285,1
,28-01-20,RMD,100143,1,5,1,27,460,1,57,293,1
,29-01-20,RMD,100144,1,4,1,20,459,1,93,334,6
,30-01-20,RMD,100145,1,4,1,20,458,1,93,321,6
,31-01-20,RMD,100146,3,6,1,20,457,3,21,314,6
,09-01-20,RMD,100147,2,2,1,20,456,2,10,248,6
,10-01-20,RMD,100148,3,6,1,20,455,3,21,301,6
,11-01-20,RMD,100149,1,5,1,27,454,1,67,394,1
,12-01-20,RMD,100150,1,4,1,20,453,1,67,440,1
,13-01-20,RMD,100151,1,4,1,20,452,1,101,282,1
,14-01-20,RMD,100152,1,4,1,20,451,1,101,312,1
,15-01-20,RMD,100153,3,6,1,20,450,3,5,380,6
,16-01-20,RMD,100154,2,2,1,20,449,2,84,262,6
,17-01-20,RMD,100155,3,6,1,20,448,3,5,436,6
,18-01-20,RMD,100156,1,4,1,20,447,1,93,296,1
,19-01-20,RMD,100157,1,4,1,20,446,1,93,362,1
,20-01-20,RMD,100158,1,5,1,27,445,1,93,308,6
,21-01-20,RMD,100159,3,6,1,20,473,3,61,257,6
,22-01-20,RMD,100160,3,6,1,20,472,3,16,335,6
,23-01-20,RMD,100161,2,2,1,20,471,2,10,364,6
,24-01-20,RMD,100162,2,2,1,20,470,2,97,396,6
,25-01-20,RMD,100163,1,4,1,20,469,1,101,377,1
,26-01-20,RMD,100164,1,5,1,27,468,1,74,247,1
,27-01-20,RMD,100165,1,4,1,20,467,1,57,256,1
,28-01-20,RMD,100166,1,4,1,20,466,1,57,376,1
,29-01-20,RMD,100167,1,4,1,20,465,1,57,250,1
,30-01-20,RMD,100168,3,3,1,20,464,3,5,348,6
,31-01-20,RMD,100169,3,3,1,20,463,3,5,359,6
,09-01-20,RMD,100170,1,5,1,27,462,1,87,339,1
,10-01-20,RMD,100171,1,5,1,27,461,1,87,300,1
,11-01-20,RMD,100172,1,4,1,20,460,1,87,248,6
,12-01-20,RMD,100173,2,2,1,20,459,2,102,280,6
,13-01-20,RMD,100174,2,2,1,20,458,2,55,348,6
,14-01-20,RMD,100175,2,2,1,20,457,2,55,337,6
,15-01-20,RMD,100176,1,4,1,20,456,1,101,387,1
,16-01-20,RMD,100177,1,5,1,27,455,1,67,339,1
,17-01-20,RMD,100178,1,4,1,20,454,1,93,297,6
,18-01-20,RMD,100179,3,3,1,20,453,3,21,369,6
,19-01-20,RMD,100180,3,6,1,20,452,3,61,395,6
,20-01-20,RMD,100181,2,2,1,20,451,2,35,311,6
,21-01-20,RMD,100182,3,3,1,20,450,3,62,442,6
,22-01-20,RMD,100183,1,5,1,27,449,1,93,274,1
,23-01-20,RMD,100184,3,6,1,20,448,3,62,348,6
,24-01-20,RMD,100185,2,2,1,20,447,2,3,348,6
,25-01-20,RMD,100186,1,4,1,20,446,1,67,268,1
,26-01-20,RMD,100187,1,4,1,20,445,1,101,385,1
,27-01-20,RMD,100188,3,3,1,20,473,3,62,262,6
,28-01-20,RMD,100189,3,6,1,20,472,3,62,314,6
,29-01-20,RMD,100190,2,2,1,20,471,2,90,276,6
,30-01-20,RME,100191,1,5,1,27,470,1,74,425,1
,31-01-20,RME,100192,1,4,1,20,469,1,74,362,1
,09-01-20,RME,100193,3,3,1,20,468,3,62,301,6
,10-01-20,RME,100194,2,2,1,20,467,2,92,335,6
,11-01-20,RME,100195,1,4,1,20,466,1,101,434,1
,12-01-20,RME,100196,1,4,1,20,465,1,74,266,1
,13-01-20,RME,100197,1,4,1,20,464,1,101,300,1
,14-01-20,RME,100198,1,4,1,20,463,1,51,348,6
,15-01-20,RME,100199,1,5,1,27,462,1,101,285,1
,16-01-20,RME,100200,3,6,1,20,461,3,62,380,6
,17-01-20,RME,100201,3,3,1,20,460,3,62,436,6
,18-01-20,RME,100202,2,2,1,20,459,2,97,343,6
,19-01-20,RME,100203,2,2,1,20,458,2,97,337,6
,20-01-20,RME,100204,1,4,1,20,457,1,101,316,1
,21-01-20,RME,100205,1,5,1,27,456,1,74,344,1
,22-01-20,RME,100206,1,4,1,20,455,1,74,261,6
,23-01-20,RME,100207,3,6,1,20,454,3,62,257,6
,24-01-20,RME,100208,3,3,1,20,453,3,62,335,6
,25-01-20,RME,100209,3,6,1,20,452,3,61,348,6
,26-01-20,RME,100210,3,3,1,20,451,3,61,359,6
,27-01-20,RME,100211,2,2,1,20,450,2,3,343,6
,28-01-20,RME,100212,1,4,1,20,449,1,101,305,1
,29-01-20,RME,100213,1,5,1,27,448,1,74,327,1
,30-01-20,RME,100214,1,4,1,20,447,1,74,250,1
,31-01-20,RME,100215,1,4,1,20,446,1,101,254,6
,09-01-20,RME,100216,1,5,1,27,445,1,101,320,1
,10-01-20,RME,100217,1,4,1,20,473,1,74,266,1
,11-01-20,RME,100218,1,4,1,20,472,1,74,327,1
,12-01-20,RME,100219,1,5,1,27,471,1,74,387,1
,13-01-20,RME,100220,1,4,1,20,470,1,74,364,6
,14-01-20,RME,100221,3,6,1,20,469,3,5,369,6
,15-01-20,RME,100222,3,3,1,20,468,3,5,395,6
,16-01-20,RME,100223,2,2,1,20,467,2,35,409,6
,17-01-20,RME,100224,2,2,1,20,466,2,35,371,6
,18-01-20,RME,100225,1,4,1,20,465,1,101,399,6
,19-01-20,RME,100226,1,4,1,20,464,1,101,282,1
,20-01-20,RME,100227,1,5,1,27,463,1,101,268,1
,21-01-20,RME,100228,1,4,1,20,462,1,101,294,1
,22-01-20,RME,100229,1,5,1,27,461,1,74,291,1
,23-01-20,RME,100230,3,6,1,20,460,3,61,442,6
,24-01-20,RME,100231,3,3,1,20,459,3,61,348,6
,25-01-20,RME,100232,3,6,1,20,458,3,61,262,6
,26-01-20,RME,100233,2,2,1,20,457,2,102,260,6
,27-01-20,RME,100234,2,2,1,20,456,2,102,322,6
,28-01-20,RME,100235,1,4,1,20,455,1,101,367,1
,29-01-20,RME,100236,1,4,1,20,454,1,101,289,6
,30-01-20,RME,100237,1,5,1,27,453,1,74,401,1
,31-01-20,RME,100238,1,4,1,20,452,1,101,350,1
,09-01-20,RME,100239,3,6,1,20,451,3,62,314,6
,10-01-20,RME,100240,3,6,1,20,450,3,62,301,6
,11-01-20,RME,100241,3,3,1,20,449,3,62,380,6
,12-01-20,RME,100242,3,6,1,20,448,3,62,436,6
,13-01-20,RME,100243,2,2,1,20,447,2,55,353,6
,14-01-20,RME,100244,2,2,1,20,446,2,35,248,6
,15-01-20,RME,100245,1,7,1,27,445,1,101,293,1
,16-01-20,RME,100246,1,7,1,27,473,1,101,362,1
,17-01-20,RME,100247,1,5,1,27,472,1,74,426,1
,18-01-20,RME,100248,1,5,1,27,471,1,101,327,1
,19-01-20,RME,100249,1,7,1,27,470,1,101,264,6
,20-01-20,RME,100250,1,7,1,28,469,1,101,337,6
,21-01-20,RME,100251,3,6,1,20,468,3,89,257,6
,22-01-20,RME,100252,3,6,1,20,467,3,89,335,6
,23-01-20,RME,100253,1,4,1,20,466,1,74,275,1
,24-01-20,RME,100254,1,4,1,20,465,1,74,267,1
,25-01-20,RME,100255,1,5,1,27,464,1,101,299,6
,26-01-20,RME,100256,1,4,1,20,463,1,101,336,6
,27-01-20,RME,100257,1,7,1,27,462,1,101,378,6
,28-01-20,RME,100258,1,5,1,27,461,1,74,442,6
,29-01-20,RME,100259,1,5,1,27,460,1,74,444,6
,30-01-20,RME,100260,1,7,1,27,459,1,51,248,6
,31-01-20,RME,100261,3,6,1,20,458,3,89,348,6
,09-01-20,RMF,100262,3,3,1,20,457,3,89,359,6
,10-01-20,RMF,100263,3,6,1,20,456,3,89,369,6
,11-01-20,RMF,100264,3,3,1,20,455,3,89,395,6
,12-01-20,RMF,100265,2,2,1,20,454,2,3,292,6
,13-01-20,RMF,100266,1,4,1,20,453,1,101,339,1
,14-01-20,RMF,100267,1,7,1,27,452,1,101,291,1
,15-01-20,RMF,100268,1,4,1,20,451,1,74,302,1
,16-01-20,RMF,100269,1,4,1,20,450,1,74,280,6
,17-01-20,RMF,100270,1,4,1,20,449,1,51,361,6
,18-01-20,RMF,100271,3,6,1,20,448,3,5,442,6
,19-01-20,RMF,100272,3,6,1,20,447,3,5,348,6
,20-01-20,RMF,100273,3,3,1,20,446,3,5,262,6
,21-01-20,RMF,100274,3,3,1,20,445,3,5,314,6
,22-01-20,RMF,100275,2,2,1,20,473,2,88,399,6
,23-01-20,RMF,100276,2,2,1,20,472,2,97,336,6
,24-01-20,RMF,100277,1,5,1,27,471,1,101,244,6
,25-01-20,RMF,100278,1,7,1,27,470,1,101,271,6
,26-01-20,RMF,100279,1,7,1,27,469,1,74,305,1
,27-01-20,RMF,100280,1,7,1,27,468,1,74,329,1
,28-01-20,RMF,100281,1,5,1,27,467,1,101,338,1
,29-01-20,RMF,100282,1,4,1,20,466,1,51,422,1
,30-01-20,RMF,100283,1,4,1,20,465,1,74,363,1
,31-01-20,RMF,100284,1,4,1,20,464,1,101,246,6
,09-01-20,RMF,100285,3,6,1,20,463,3,34,301,6
,10-01-20,RMF,100286,3,3,1,20,462,3,34,380,6
,11-01-20,RMF,100287,3,3,1,20,461,3,34,436,6
,12-01-20,RMF,100288,2,2,1,20,460,2,10,297,6
,13-01-20,RMF,100289,1,7,1,27,459,1,101,425,1
,14-01-20,RMF,100290,1,7,1,27,458,1,74,338,1
,15-01-20,RMF,100291,1,7,1,27,457,1,101,342,1
,16-01-20,RMF,100292,1,4,1,20,456,1,101,386,1
,17-01-20,RMF,100293,1,7,1,27,455,1,51,249,1
,18-01-20,RMF,100294,1,7,1,27,454,1,51,345,1
,19-01-20,RMF,100295,1,4,1,20,453,1,51,324,6
,20-01-20,RMF,100296,1,4,1,20,452,1,101,314,6
,21-01-20,RMF,100297,1,4,1,20,451,1,101,431,6
,22-01-20,RMF,100298,2,2,1,20,450,2,102,313,6
,23-01-20,RMF,100299,2,2,1,20,449,2,102,280,6
,24-01-20,RMF,100300,3,3,1,20,448,3,34,257,6
,25-01-20,RMF,100301,3,6,1,20,447,3,34,335,6
,26-01-20,RMF,100302,3,6,1,20,446,3,34,348,6
,27-01-20,RMF,100303,1,7,1,27,445,1,101,294,1
,28-01-20,RMF,100304,3,6,1,20,473,3,61,359,6
,29-01-20,RMF,100305,3,6,1,20,472,3,61,369,6
,30-01-20,RMF,100306,3,6,1,20,471,3,61,395,6
,31-01-20,RMF,100307,3,3,1,20,470,3,61,436,6
,09-01-20,RMG,100308,1,4,1,20,469,1,101,387,1
,10-01-20,RMG,100309,3,6,1,20,468,3,77,257,6
,11-01-20,RMG,100310,3,6,1,20,467,3,77,335,6
,12-01-20,RMG,100311,3,6,1,20,466,3,77,348,6
,13-01-20,RMG,100312,3,3,1,20,465,3,77,359,6
,14-01-20,RMG,100313,3,3,1,20,464,3,77,369,6
,15-01-20,RMG,100314,3,3,1,20,463,3,77,395,6
,16-01-20,RMG,100315,1,7,1,27,462,1,101,401,1
,17-01-20,RMG,100316,1,4,1,20,461,1,101,415,1
,18-01-20,RMG,100317,1,4,1,20,460,1,51,268,1
,19-01-20,RMG,100318,1,4,1,20,459,1,51,416,6
,20-01-20,RMG,100319,3,6,1,20,458,3,5,442,6
,21-01-20,RMG,100320,3,6,1,20,457,3,77,348,6
,22-01-20,RMG,100321,3,3,1,20,456,3,77,262,6
,23-01-20,RMG,100322,2,2,1,20,455,2,88,258,6
,24-01-20,RMG,100323,2,2,1,20,454,2,3,321,6
,25-01-20,RMG,100324,1,7,1,27,453,1,51,338,1
,26-01-20,RMG,100325,1,7,1,27,452,1,101,398,1
,27-01-20,RMG,100326,3,6,1,20,451,3,56,314,6
,28-01-20,RMG,100327,3,6,1,20,450,3,56,301,6
,29-01-20,RMG,100328,3,6,1,20,449,3,56,380,6
,30-01-20,RMG,100329,3,3,1,20,448,3,56,436,6
,31-01-20,RMG,100330,3,3,1,20,447,3,56,257,6
,09-01-20,RMG,100331,1,4,1,20,446,1,101,409,6
,10-01-20,RMG,100332,1,4,1,20,445,1,74,441,6
,11-01-20,RMG,100333,1,7,1,27,473,1,101,276,6
,12-01-20,RMG,100334,3,6,1,20,472,3,33,335,6
,13-01-20,RMG,100335,3,6,1,20,471,3,33,348,6
,14-01-20,RMG,100336,3,3,1,20,470,3,33,359,6
,15-01-20,RMG,100337,3,3,1,20,469,3,33,369,6
,16-01-20,RMG,100338,2,2,1,20,468,2,55,334,6
,17-01-20,RMG,100339,1,4,1,20,467,1,101,410,1
,18-01-20,RMG,100340,1,7,1,27,466,1,101,327,1
,19-01-20,RMG,100341,1,4,1,20,465,1,74,310,1
,20-01-20,RMG,100342,1,4,1,20,464,1,101,412,1
,21-01-20,RMG,100343,3,6,1,20,463,3,5,395,6
,22-01-20,RMG,100344,3,6,1,20,462,3,5,442,6
,23-01-20,RMG,100345,3,3,1,20,461,3,61,348,6
,24-01-20,RMG,100346,3,3,1,20,460,3,61,262,6
,25-01-20,RMG,100347,2,2,1,20,459,2,102,353,6
,26-01-20,RMG,100348,2,2,1,20,458,2,3,258,6
,27-01-20,RMG,100349,2,2,1,20,457,2,55,246,6
,28-01-20,RMG,100350,1,7,1,27,456,1,101,277,1
,29-01-20,RMG,100351,1,4,1,20,455,1,51,291,1
,30-01-20,RMG,100352,1,4,1,20,454,1,101,422,6
,31-01-20,RMG,100353,3,6,1,20,453,3,89,314,6
,09-01-20,RMG,100354,3,6,1,20,452,3,89,301,6
,10-01-20,RMG,100355,3,3,1,20,451,3,77,380,6
,11-01-20,RMG,100356,3,3,1,20,450,3,77,436,6
,12-01-20,RMG,100357,2,2,1,20,449,2,79,326,6
,13-01-20,RMG,100358,2,2,1,20,448,2,3,399,6
,14-01-20,RMG,100359,2,2,1,20,447,2,102,365,6
,15-01-20,RMG,100360,1,7,1,27,446,1,101,276,6
,16-01-20,RMG,100361,1,7,1,27,445,1,101,334,6
,17-01-20,RMG,100362,1,7,1,27,473,1,101,299,6
,18-01-20,RMG,100363,3,6,1,20,472,3,77,257,6
,19-01-20,RMG,100364,3,6,1,20,471,3,77,335,6
,20-01-20,RMG,100365,3,3,1,20,470,3,5,348,6
,21-01-20,RMG,100366,3,3,1,20,469,3,5,359,6
,22-01-20,RMG,100367,3,3,1,20,468,3,21,369,6
,23-01-20,RMG,100368,2,2,1,20,467,2,55,248,6
,24-01-20,RMG,100369,1,4,1,20,466,1,101,320,1
,25-01-20,RMG,100370,1,7,1,27,465,1,101,291,1
,26-01-20,RMG,100371,1,4,1,20,464,1,51,374,6
,27-01-20,RMG,100372,1,4,1,20,463,1,101,337,6
,28-01-20,RMG,100373,1,7,1,27,462,1,101,247,1
,29-01-20,RMG,100374,1,7,1,27,461,1,101,249,1
,30-01-20,RMG,100375,3,6,1,20,460,3,21,395,6
,31-01-20,RMG,100376,3,6,1,20,459,3,21,442,6
,09-01-20,RMG,100377,3,3,1,20,458,3,33,348,6
,10-01-20,RMG,100378,3,3,1,20,457,3,33,262,6
,11-01-20,RMG,100379,2,2,1,20,456,2,65,353,6
,12-01-20,RMG,100380,1,7,1,27,455,1,101,425,1
,13-01-20,RMG,100381,1,4,1,20,454,1,101,370,1
,14-01-20,RMG,100382,1,4,1,20,453,1,74,302,1
,15-01-20,RMG,100383,1,7,1,27,452,1,51,308,6
,16-01-20,RMG,100384,1,4,1,20,451,1,101,254,6
,17-01-20,RMG,100385,3,6,1,20,450,3,56,314,6
,18-01-20,RMG,100386,3,6,1,20,449,3,56,301,6
,19-01-20,RMG,100387,3,6,1,20,448,3,56,380,6
,20-01-20,RMG,100388,3,3,1,20,447,3,5,436,6
,21-01-20,RMG,100389,3,3,1,20,446,3,21,257,6
,22-01-20,RMG,100390,3,3,1,20,445,3,21,335,6
,23-01-20,RMG,100391,1,7,1,27,473,1,51,339,2
,24-01-20,RMG,100392,1,7,1,27,472,1,101,310,1
,25-01-20,RMG,100393,1,7,1,27,471,1,74,314,6
,26-01-20,RMG,100394,3,6,1,20,470,3,48,348,6
,27-01-20,RMG,100395,3,6,1,20,469,3,48,359,6
,28-01-20,RMG,100396,3,3,1,20,468,3,48,369,6
,29-01-20,RMG,100397,3,3,1,20,467,3,48,395,6
,30-01-20,RMG,100398,3,6,1,20,466,3,48,442,6
,31-01-20,RMG,100399,3,3,1,20,465,3,77,348,6
,09-01-20,RMG,100400,3,3,1,20,464,3,77,262,6
,10-01-20,RMG,100401,2,2,1,20,463,2,79,246,6
,11-01-20,RMG,100402,1,4,1,20,462,1,51,350,1
,12-01-20,RMG,100403,1,7,1,27,461,1,51,282,1
,13-01-20,RMG,100404,1,4,1,20,460,1,51,280,6
,14-01-20,RMG,100405,1,4,1,20,459,1,51,305,1
,15-01-20,RMG,100406,3,6,1,20,458,3,5,314,6
,16-01-20,RMG,100407,3,6,1,20,457,3,5,301,6
,17-01-20,RMG,100408,3,3,1,20,456,3,5,380,6
,18-01-20,RMG,100409,3,3,1,20,455,3,5,436,6
,19-01-20,RMG,100410,3,6,1,20,454,3,21,257,6
,20-01-20,RMG,100411,3,6,1,20,453,3,21,335,6
,21-01-20,RMG,100412,3,3,1,20,452,3,21,348,6
,22-01-20,RMG,100413,3,3,1,20,451,3,21,359,6
,23-01-20,RMG,100414,2,2,1,20,450,2,88,297,6
,24-01-20,RMG,100416,1,4,1,20,449,1,74,278,2
,25-01-20,RMG,100417,1,7,1,27,448,1,51,320,1
,26-01-20,RMG,100418,3,6,1,20,447,3,48,369,6
,27-01-20,RMH,100419,3,6,1,20,446,3,48,395,6
,28-01-20,RMH,100420,3,3,1,20,445,3,48,442,6
,29-01-20,RMH,100421,2,2,1,20,473,2,102,261,6
,30-01-20,RMH,100422,2,2,1,20,472,2,102,301,6
,31-01-20,RMH,100423,1,4,1,20,471,1,74,374,6
,09-01-20,RMH,100424,1,4,1,20,470,1,101,441,6
,10-01-20,RMH,100425,1,4,1,20,469,1,51,280,6
,11-01-20,RMH,100426,1,5,1,27,468,1,51,316,1
,12-01-20,RMH,100427,1,4,1,20,467,1,74,287,1
,13-01-20,RMH,100428,1,5,1,27,466,1,51,425,2
,14-01-20,RMH,100429,1,4,1,20,465,1,51,361,6
,15-01-20,RMH,100430,3,3,1,20,464,3,102,348,6
